\relax 
\providecommand\hyper@newdestlabel[2]{}
\providecommand\HyperFirstAtBeginDocument{\AtBeginDocument}
\HyperFirstAtBeginDocument{\ifx\hyper@anchor\@undefined
\global\let\oldcontentsline\contentsline
\gdef\contentsline#1#2#3#4{\oldcontentsline{#1}{#2}{#3}}
\global\let\oldnewlabel\newlabel
\gdef\newlabel#1#2{\newlabelxx{#1}#2}
\gdef\newlabelxx#1#2#3#4#5#6{\oldnewlabel{#1}{{#2}{#3}}}
\AtEndDocument{\ifx\hyper@anchor\@undefined
\let\contentsline\oldcontentsline
\let\newlabel\oldnewlabel
\fi}
\fi}
\global\let\hyper@last\relax 
\gdef\HyperFirstAtBeginDocument#1{#1}
\providecommand\HyField@AuxAddToFields[1]{}
\providecommand\HyField@AuxAddToCoFields[2]{}
\select@language{english}
\@writefile{toc}{\select@language{english}}
\@writefile{lof}{\select@language{english}}
\@writefile{lot}{\select@language{english}}
\citation{hyperalignment}
\citation{hyper2}
\citation{srm}
\@writefile{toc}{\contentsline {section}{\numberline {1}Declaration of academic integrity}{3}{section.1}}
\citation{openfmri}
\citation{neurovault}
\citation{hyperalignment}
\citation{srm}
\@writefile{toc}{\contentsline {section}{\numberline {2}Introduction}{4}{section.2}}
\@writefile{toc}{\contentsline {paragraph}{Context}{4}{section*.2}}
\@writefile{toc}{\contentsline {paragraph}{Objective}{4}{section*.3}}
\@writefile{toc}{\contentsline {paragraph}{}{4}{section*.4}}
\@writefile{toc}{\contentsline {section}{\numberline {3}fMRI: looking into brains}{4}{section.3}}
\@writefile{toc}{\contentsline {subsection}{\numberline {3.1}BOLD Signal and Scanners}{4}{subsection.3.1}}
\citation{roy1890regulation}
\citation{belliveau1991functional}
\citation{evans19933d}
\citation{klein2009evaluation}
\citation{fischl2012freesurfer}
\citation{fedorenko2011functional}
\@writefile{toc}{\contentsline {subsection}{\numberline {3.2}Registration methods: from anatomy-based alignment to function-based alignment}{5}{subsection.3.2}}
\@writefile{toc}{\contentsline {paragraph}{Anatomy-based alignment}{5}{section*.5}}
\@writefile{toc}{\contentsline {paragraph}{Shortcomings of anatomy-based alignment}{5}{section*.6}}
\citation{van2012human}
\citation{hyperalignment}
\citation{srm}
\citation{nenning2017diffeomorphic}
\@writefile{toc}{\contentsline {paragraph}{A new approach: Data-based alignment}{6}{section*.7}}
\@writefile{toc}{\contentsline {section}{\numberline {4}Feature alignment algorithms}{6}{section.4}}
\@writefile{toc}{\contentsline {subsection}{\numberline {4.1}Definitions}{6}{subsection.4.1}}
\@writefile{toc}{\contentsline {paragraph}{Voxels and timeframes}{6}{section*.8}}
\@writefile{toc}{\contentsline {paragraph}{Sessions and timecourses}{6}{section*.9}}
\@writefile{toc}{\contentsline {paragraph}{Linear time-independent algorithms}{6}{section*.10}}
\newlabel{activation_map_1_horizontal_vertical}{{1(a)}{7}{Subfigure 1(a)}{subfigure.1.1}{}}
\newlabel{sub@activation_map_1_horizontal_vertical}{{(a)}{7}{Subfigure 1(a)\relax }{subfigure.1.1}{}}
\newlabel{activation_map_5_horizontal_vertical}{{1(b)}{7}{Subfigure 1(b)}{subfigure.1.2}{}}
\newlabel{sub@activation_map_5_horizontal_vertical}{{(b)}{7}{Subfigure 1(b)\relax }{subfigure.1.2}{}}
\newlabel{activation_map_mean_horizontal_vertical}{{1(c)}{7}{Subfigure 1(c)}{subfigure.1.3}{}}
\newlabel{sub@activation_map_mean_horizontal_vertical}{{(c)}{7}{Subfigure 1(c)\relax }{subfigure.1.3}{}}
\@writefile{lof}{\contentsline {figure}{\numberline {1}{\ignorespaces Different subjects exposed to a visual stimuli (watching horizontal versus vertical lines) \ref  {activation_map_1_horizontal_vertical}: Subject 1, \ref  {activation_map_5_horizontal_vertical}: Subject 6, \ref  {activation_map_mean_horizontal_vertical}: mean of 8 subjects. Although individual brain maps are similar, they do not show perfect voxel-level correspondence. }}{7}{figure.1}}
\newlabel{activation_map_horizontal}{{1}{7}{Different subjects exposed to a visual stimuli (watching horizontal versus vertical lines) \ref {activation_map_1_horizontal_vertical}: Subject 1, \ref {activation_map_5_horizontal_vertical}: Subject 6, \ref {activation_map_mean_horizontal_vertical}: mean of 8 subjects. Although individual brain maps are similar, they do not show perfect voxel-level correspondence}{figure.1}{}}
\@writefile{lof}{\contentsline {subfigure}{\numberline{(a)}{\ignorespaces {T-values for Subject 1}}}{7}{figure.1}}
\@writefile{lof}{\contentsline {subfigure}{\numberline{(b)}{\ignorespaces {T-values for Subject 6}}}{7}{figure.1}}
\@writefile{lof}{\contentsline {subfigure}{\numberline{(c)}{\ignorespaces {T-values for mean of $8$ subjects}}}{7}{figure.1}}
\citation{hyperalignment}
\citation{hyper2}
\@writefile{toc}{\contentsline {paragraph}{Measure of performance}{8}{section*.11}}
\@writefile{toc}{\contentsline {subsection}{\numberline {4.2}Hyperalignment \cite  {hyperalignment} and \cite  {hyper2}}{8}{subsection.4.2}}
\@writefile{toc}{\contentsline {subsubsection}{\numberline {4.2.1}Mapping}{8}{subsubsection.4.2.1}}
\@writefile{toc}{\contentsline {paragraph}{A simple example with 2 subjects and 2 sessions: a one-to-one mapping}{8}{section*.12}}
\@writefile{toc}{\contentsline {paragraph}{A straight-forward generalization: a many-to-one mapping}{9}{section*.13}}
\@writefile{toc}{\contentsline {paragraph}{Resolution of the optimization problem in the training phase}{9}{section*.14}}
\newlabel{ortho_eq4}{{1}{9}{Resolution of the optimization problem in the training phase}{equation.4.1}{}}
\newlabel{ortho_eq1}{{2}{9}{Resolution of the optimization problem in the training phase}{equation.4.2}{}}
\newlabel{ortho_eq2}{{3}{10}{Resolution of the optimization problem in the training phase}{equation.4.3}{}}
\newlabel{ortho_eq3}{{4}{10}{Resolution of the optimization problem in the training phase}{equation.4.4}{}}
\citation{wegelin2000survey}
\citation{hyper2}
\@writefile{loa}{\contentsline {algorithm}{\numberline {1}{\ignorespaces align(X, Y): Map X to Y using linear scaled orthogonal transform}}{11}{algorithm.1}}
\newlabel{pseudocode_orthoalign}{{1}{11}{Resolution of the optimization problem in the training phase}{algorithm.1}{}}
\@writefile{toc}{\contentsline {paragraph}{Searchlight procedure}{11}{section*.15}}
\@writefile{toc}{\contentsline {subsubsection}{\numberline {4.2.2}Template estimation}{12}{subsubsection.4.2.2}}
\@writefile{loa}{\contentsline {algorithm}{\numberline {2}{\ignorespaces build\_template($\mathbf  {X_1},...,\mathbf  {X_n}$): Use $\mathbf  {X_1},...,\mathbf  {X_n}$ to build a template}}{12}{algorithm.2}}
\newlabel{pseudocode_hyperalignment_template}{{2}{12}{Template estimation}{algorithm.2}{}}
\citation{srm}
\@writefile{toc}{\contentsline {subsubsection}{\numberline {4.2.3}Comments on hyperalignment}{13}{subsubsection.4.2.3}}
\@writefile{toc}{\contentsline {subsection}{\numberline {4.3}Shared response model \cite  {srm}}{13}{subsection.4.3}}
\@writefile{toc}{\contentsline {subsubsection}{\numberline {4.3.1}Mapping}{14}{subsubsection.4.3.1}}
\@writefile{toc}{\contentsline {subsubsection}{\numberline {4.3.2}Low dimension template}{14}{subsubsection.4.3.2}}
\newlabel{srm_eq1}{{8}{14}{Low dimension template}{equation.4.8}{}}
\@writefile{toc}{\contentsline {subsubsection}{\numberline {4.3.3}Comments on the shared response model}{15}{subsubsection.4.3.3}}
\@writefile{toc}{\contentsline {section}{\numberline {5}Our method for building new feature alignment algorithms}{15}{section.5}}
\@writefile{toc}{\contentsline {subsection}{\numberline {5.1}Mapping methods}{15}{subsection.5.1}}
\@writefile{toc}{\contentsline {subsubsection}{\numberline {5.1.1}Identity regression (or mean)}{15}{subsubsection.5.1.1}}
\@writefile{toc}{\contentsline {subsubsection}{\numberline {5.1.2}Scaled orthogonal regression}{15}{subsubsection.5.1.2}}
\citation{scikit}
\citation{mukherjee2011reduced}
\@writefile{toc}{\contentsline {subsubsection}{\numberline {5.1.3}Ridge Regression}{16}{subsubsection.5.1.3}}
\newlabel{ridge_equ1}{{9}{16}{Ridge Regression}{equation.5.9}{}}
\@writefile{toc}{\contentsline {subsubsection}{\numberline {5.1.4}Reduced rank regression}{16}{subsubsection.5.1.4}}
\newlabel{rrr_equ1}{{10}{16}{Reduced rank regression}{equation.5.10}{}}
\citation{mairal2009online}
\@writefile{loa}{\contentsline {algorithm}{\numberline {3}{\ignorespaces $ridge\_cv(\mathbf  {X}, \mathbf  {Y}, \lambda _1,...,\lambda _k)$: Align $\mathbf  {X}$ and $\mathbf  {Y}$ using Ridge regression with the best value for $\lambda $}}{17}{algorithm.3}}
\newlabel{pseudocode_ridge_cv}{{3}{17}{Ridge Regression}{algorithm.3}{}}
\@writefile{toc}{\contentsline {subsection}{\numberline {5.2}Template building}{17}{subsection.5.2}}
\@writefile{toc}{\contentsline {subsubsection}{\numberline {5.2.1}Dictionary Learning}{17}{subsubsection.5.2.1}}
\citation{byrd1995limited}
\@writefile{toc}{\contentsline {subsubsection}{\numberline {5.2.2}Principal component analysis}{18}{subsubsection.5.2.2}}
\@writefile{toc}{\contentsline {subsubsection}{\numberline {5.2.3}Scaled shared response model}{18}{subsubsection.5.2.3}}
\@writefile{toc}{\contentsline {subsubsection}{\numberline {5.2.4}Reinforcement mapping}{18}{subsubsection.5.2.4}}
\citation{hestenes2012conjugate}
\citation{nilearn}
\citation{scikit}
\citation{forrest}
\citation{openfmri}
\@writefile{toc}{\contentsline {section}{\numberline {6}Experiments}{19}{section.6}}
\@writefile{toc}{\contentsline {subsection}{\numberline {6.1}Dataset}{19}{subsection.6.1}}
\@writefile{toc}{\contentsline {subsection}{\numberline {6.2}Benchmark of mapping procedures: generalization to different but similar data}{20}{subsection.6.2}}
\@writefile{toc}{\contentsline {subsection}{\numberline {6.3}Benchmark of template building procedure: generalization to different but similar data}{20}{subsection.6.3}}
\@writefile{lof}{\contentsline {figure}{\numberline {2}{\ignorespaces Benchmark on IBC dataset: Predict the data of a left-out subject. 8 subjects were used for this experiment. All parameters were set manually due to time issues. On the right of each figure, there is the colormap displaying the value of the coefficient of determination for each voxel}}{21}{figure.2}}
\newlabel{exp_mapping_ibc}{{2}{21}{Benchmark on IBC dataset: Predict the data of a left-out subject. 8 subjects were used for this experiment. All parameters were set manually due to time issues. On the right of each figure, there is the colormap displaying the value of the coefficient of determination for each voxel}{figure.2}{}}
\@writefile{lof}{\contentsline {subfigure}{\numberline{(a)}{\ignorespaces {Reduced Rank Regression}}}{21}{figure.2}}
\@writefile{lof}{\contentsline {subfigure}{\numberline{(b)}{\ignorespaces {Local Ridge Regression (using local regions of the brain)}}}{21}{figure.2}}
\@writefile{lof}{\contentsline {subfigure}{\numberline{(c)}{\ignorespaces {Global Ridge Regression (using the entire brain for mapping)}}}{21}{figure.2}}
\@writefile{lof}{\contentsline {subfigure}{\numberline{(d)}{\ignorespaces {Identity Regression (mean)}}}{21}{figure.2}}
\@writefile{lof}{\contentsline {subfigure}{\numberline{(e)}{\ignorespaces {Scaled orthogonal transform}}}{21}{figure.2}}
\@writefile{lof}{\contentsline {figure}{\numberline {3}{\ignorespaces Benchmark on FORREST dataset: Predict the data of a left-out subject. 8 subjects were used for this experiment. All parameters were set manually due to time issues. On the right of each figure, there is the colormap displaying the value of the coefficient of determination for each voxel}}{22}{figure.3}}
\newlabel{exp_mapping_forrest}{{3}{22}{Benchmark on FORREST dataset: Predict the data of a left-out subject. 8 subjects were used for this experiment. All parameters were set manually due to time issues. On the right of each figure, there is the colormap displaying the value of the coefficient of determination for each voxel}{figure.3}{}}
\@writefile{lof}{\contentsline {subfigure}{\numberline{(a)}{\ignorespaces {Reduced Rank Regression}}}{22}{figure.3}}
\@writefile{lof}{\contentsline {subfigure}{\numberline{(b)}{\ignorespaces {Local Ridge Regression (using local regions of the brain)}}}{22}{figure.3}}
\@writefile{lof}{\contentsline {subfigure}{\numberline{(c)}{\ignorespaces {Global Ridge Regression (using the entire brain for mapping)}}}{22}{figure.3}}
\@writefile{lof}{\contentsline {subfigure}{\numberline{(d)}{\ignorespaces {Identity Regression (mean)}}}{22}{figure.3}}
\@writefile{lof}{\contentsline {subfigure}{\numberline{(e)}{\ignorespaces {Scaled orthogonal transform}}}{22}{figure.3}}
\@writefile{lof}{\contentsline {figure}{\numberline {4}{\ignorespaces Average time taken by the algorithm to align two small region of 1461 voxels depending on the number of sessions considered using the ibc dataset}}{23}{figure.4}}
\newlabel{time_ibc}{{4}{23}{Average time taken by the algorithm to align two small region of 1461 voxels depending on the number of sessions considered using the ibc dataset}{figure.4}{}}
\@writefile{lof}{\contentsline {figure}{\numberline {5}{\ignorespaces Benchmark on IBC dataset: Predict the data of a left-out subject. 8 subjects were used for this experiment. All parameters were set manually due to time issues. On the right of each figure, there is the colormap displaying the value of the coefficient of determination for each voxel}}{23}{figure.5}}
\newlabel{exp_template_ibc}{{5}{23}{Benchmark on IBC dataset: Predict the data of a left-out subject. 8 subjects were used for this experiment. All parameters were set manually due to time issues. On the right of each figure, there is the colormap displaying the value of the coefficient of determination for each voxel}{figure.5}{}}
\@writefile{lof}{\contentsline {subfigure}{\numberline{(a)}{\ignorespaces {Template PCA}}}{23}{figure.5}}
\@writefile{lof}{\contentsline {subfigure}{\numberline{(b)}{\ignorespaces {Shared Response Model}}}{23}{figure.5}}
\@writefile{lof}{\contentsline {subfigure}{\numberline{(c)}{\ignorespaces {Template Dict}}}{23}{figure.5}}
\@writefile{lof}{\contentsline {figure}{\numberline {6}{\ignorespaces Benchmark on Forrest dataset: Predict the data of a left-out subject. 8 subjects were used for this experiment. All parameters were set manually due to time issues. On the right of each figure, there is the colormap displaying the value of the coefficient of determination for each voxel}}{24}{figure.6}}
\newlabel{exp_template_forrest}{{6}{24}{Benchmark on Forrest dataset: Predict the data of a left-out subject. 8 subjects were used for this experiment. All parameters were set manually due to time issues. On the right of each figure, there is the colormap displaying the value of the coefficient of determination for each voxel}{figure.6}{}}
\@writefile{lof}{\contentsline {subfigure}{\numberline{(a)}{\ignorespaces {Template PCA}}}{24}{figure.6}}
\@writefile{lof}{\contentsline {subfigure}{\numberline{(b)}{\ignorespaces {Shared Response Model}}}{24}{figure.6}}
\@writefile{lof}{\contentsline {subfigure}{\numberline{(c)}{\ignorespaces {Template Dict}}}{24}{figure.6}}
\@writefile{lof}{\contentsline {figure}{\numberline {7}{\ignorespaces We compare the performance of several algorithms looking at histograms of explained variance}}{25}{figure.7}}
\newlabel{compare}{{7}{25}{We compare the performance of several algorithms looking at histograms of explained variance}{figure.7}{}}
\@writefile{lof}{\contentsline {subfigure}{\numberline{(a)}{\ignorespaces {Histogram of explained variance (IBC Dataset)}}}{25}{figure.7}}
\@writefile{lof}{\contentsline {subfigure}{\numberline{(b)}{\ignorespaces {Histogram of explained variance (FORREST Dataset)}}}{25}{figure.7}}
\@writefile{toc}{\contentsline {subsection}{\numberline {6.4}Benchmark of mapping algorithms: generalization to a completely new experiment}{26}{subsection.6.4}}
\@writefile{toc}{\contentsline {section}{\numberline {7}Conclusion}{26}{section.7}}
\@writefile{toc}{\contentsline {section}{\numberline {8}Future Work}{26}{section.8}}
\@writefile{lof}{\contentsline {figure}{\numberline {8}{\ignorespaces Generalization on completely new experiments: The colour map represents t-values. We can see that again Ridge Regression and Reduced Rank Regression perform better than the other algorithms}}{27}{figure.8}}
\newlabel{horizontal_vertical}{{8}{27}{Generalization on completely new experiments: The colour map represents t-values. We can see that again Ridge Regression and Reduced Rank Regression perform better than the other algorithms}{figure.8}{}}
\@writefile{lof}{\contentsline {subfigure}{\numberline{(a)}{\ignorespaces {Subject 1 : original activation map}}}{27}{figure.8}}
\@writefile{lof}{\contentsline {subfigure}{\numberline{(b)}{\ignorespaces {Subject 5 : original activation map}}}{27}{figure.8}}
\@writefile{lof}{\contentsline {subfigure}{\numberline{(c)}{\ignorespaces {Subject 1 : mean of other subject's activation map}}}{27}{figure.8}}
\@writefile{lof}{\contentsline {subfigure}{\numberline{(d)}{\ignorespaces {Subject 5 : mean of other subject's activation map}}}{27}{figure.8}}
\@writefile{lof}{\contentsline {subfigure}{\numberline{(e)}{\ignorespaces {Subject 1 : prediction using Reduced Rank Regression}}}{27}{figure.8}}
\@writefile{lof}{\contentsline {subfigure}{\numberline{(f)}{\ignorespaces {Subject 5 : prediction using Reduced Rank Regression}}}{27}{figure.8}}
\@writefile{lof}{\contentsline {subfigure}{\numberline{(g)}{\ignorespaces {Subject 1 : prediction using Ridge Regression}}}{27}{figure.8}}
\@writefile{lof}{\contentsline {subfigure}{\numberline{(h)}{\ignorespaces {Subject 5 : prediction using Ridge Regression}}}{27}{figure.8}}
\@writefile{lof}{\contentsline {subfigure}{\numberline{(i)}{\ignorespaces {Subject 1 : prediction using scaled orthogonal transform}}}{27}{figure.8}}
\@writefile{lof}{\contentsline {subfigure}{\numberline{(j)}{\ignorespaces {Subject 5 : prediction using scaled orthogonal transform}}}{27}{figure.8}}
\@writefile{lof}{\contentsline {figure}{\numberline {9}{\ignorespaces Generalization on completely new experiments - IBC Dataset: Colour map represents t-values. Only regions in the visual cortex are predicted correctly. }}{28}{figure.9}}
\newlabel{memory}{{9}{28}{Generalization on completely new experiments - IBC Dataset: Colour map represents t-values. Only regions in the visual cortex are predicted correctly}{figure.9}{}}
\@writefile{lof}{\contentsline {subfigure}{\numberline{(a)}{\ignorespaces {Subject 1 : original activation map}}}{28}{figure.9}}
\@writefile{lof}{\contentsline {subfigure}{\numberline{(b)}{\ignorespaces {Subject 5 : original activation map}}}{28}{figure.9}}
\@writefile{lof}{\contentsline {subfigure}{\numberline{(c)}{\ignorespaces {Subject 1 : mean of other subject's activation map}}}{28}{figure.9}}
\@writefile{lof}{\contentsline {subfigure}{\numberline{(d)}{\ignorespaces {Subject 5 : mean of other subject's activation map}}}{28}{figure.9}}
\@writefile{lof}{\contentsline {subfigure}{\numberline{(e)}{\ignorespaces {Subject 1 : prediction using Reduced Rank Regression}}}{28}{figure.9}}
\@writefile{lof}{\contentsline {subfigure}{\numberline{(f)}{\ignorespaces {Subject 5 : prediction using Reduced Rank Regression}}}{28}{figure.9}}
\@writefile{lof}{\contentsline {subfigure}{\numberline{(g)}{\ignorespaces {Subject 1 : prediction using Ridge Regression}}}{28}{figure.9}}
\@writefile{lof}{\contentsline {subfigure}{\numberline{(h)}{\ignorespaces {Subject 5 : prediction using Ridge Regression}}}{28}{figure.9}}
\@writefile{lof}{\contentsline {subfigure}{\numberline{(i)}{\ignorespaces {Subject 1 : prediction using scaled orthogonal transform}}}{28}{figure.9}}
\@writefile{lof}{\contentsline {subfigure}{\numberline{(j)}{\ignorespaces {Subject 5 : prediction using scaled orthogonal transform}}}{28}{figure.9}}
\@writefile{lof}{\contentsline {figure}{\numberline {10}{\ignorespaces Using the pearson correlation coefficient to measure the correlation between images produced using by the algorithms and original image, we can see that the performance of algorithms is quite better when performing a visual task than when performing a memory task.}}{29}{figure.10}}
\newlabel{quantitative_stimuly}{{10}{29}{Using the pearson correlation coefficient to measure the correlation between images produced using by the algorithms and original image, we can see that the performance of algorithms is quite better when performing a visual task than when performing a memory task}{figure.10}{}}
\@writefile{lof}{\contentsline {subfigure}{\numberline{(a)}{\ignorespaces {Subject 1: memory task}}}{29}{figure.10}}
\@writefile{lof}{\contentsline {subfigure}{\numberline{(b)}{\ignorespaces {Subject 5 : memory task}}}{29}{figure.10}}
\@writefile{lof}{\contentsline {subfigure}{\numberline{(c)}{\ignorespaces {Subject 1 : visual task}}}{29}{figure.10}}
\@writefile{lof}{\contentsline {subfigure}{\numberline{(d)}{\ignorespaces {Subject 5 : visual task}}}{29}{figure.10}}
\bibstyle{alpha}
\bibdata{biblio}
\bibcite{nilearn}{APE{$^{+}$}14}
\bibcite{belliveau1991functional}{BKM{$^{+}$}91}
\bibcite{byrd1995limited}{BLNZ95}
\bibcite{srm}{CCY{$^{+}$}15}
\bibcite{evans19933d}{ECM{$^{+}$}93}
\bibcite{fedorenko2011functional}{FBK11}
\bibcite{fischl2012freesurfer}{Fis12}
\bibcite{hyper2}{GHH{$^{+}$}16}
\bibcite{neurovault}{GVR{$^{+}$}15}
\bibcite{forrest}{HBI{$^{+}$}14}
\bibcite{hestenes2012conjugate}{Hes12}
\bibcite{hyperalignment}{HGC{$^{+}$}11}
\@writefile{toc}{\contentsline {section}{References}{31}{section.8}}
\bibcite{klein2009evaluation}{KAA{$^{+}$}09}
\bibcite{mairal2009online}{MBPS09}
\bibcite{mukherjee2011reduced}{MZ11}
\bibcite{nenning2017diffeomorphic}{NLG{$^{+}$}17}
\bibcite{openfmri}{PBM{$^{+}$}13}
\bibcite{scikit}{PVG{$^{+}$}11}
\bibcite{roy1890regulation}{RS90}
\bibcite{van2012human}{VEUA{$^{+}$}12}
\bibcite{wegelin2000survey}{W{$^{+}$}00}
\@writefile{toc}{\contentsline {section}{\numberline {9}Appendix}{33}{section.9}}
\newlabel{explained_variance}{{9.1}{33}{Proof: coefficient of determination and explained variance}{subsection.9.1}{}}
\@writefile{toc}{\contentsline {subsection}{\numberline {9.1}Proof: coefficient of determination and explained variance }{33}{subsection.9.1}}
