<?xml version="1.0" encoding="UTF-8" standalone="no"?>
<!-- Created with Inkscape (http://www.inkscape.org/) -->

<svg
   xmlns:dc="http://purl.org/dc/elements/1.1/"
   xmlns:cc="http://creativecommons.org/ns#"
   xmlns:rdf="http://www.w3.org/1999/02/22-rdf-syntax-ns#"
   xmlns:svg="http://www.w3.org/2000/svg"
   xmlns="http://www.w3.org/2000/svg"
   xmlns:sodipodi="http://sodipodi.sourceforge.net/DTD/sodipodi-0.dtd"
   xmlns:inkscape="http://www.inkscape.org/namespaces/inkscape"
   version="1.1"
   id="svg335"
   xml:space="preserve"
   width="706.77167"
   height="684.09448"
   viewBox="0 0 706.77167 684.09448"
   sodipodi:docname="experiment.svg"
   inkscape:version="0.92.4 (33fec40, 2019-01-16)"><metadata
     id="metadata341"><rdf:RDF><cc:Work
         rdf:about=""><dc:format>image/svg+xml</dc:format><dc:type
           rdf:resource="http://purl.org/dc/dcmitype/StillImage" /><dc:title></dc:title></cc:Work></rdf:RDF></metadata><defs
     id="defs339" /><sodipodi:namedview
     pagecolor="#ffffff"
     bordercolor="#666666"
     borderopacity="1"
     objecttolerance="10"
     gridtolerance="10"
     guidetolerance="10"
     inkscape:pageopacity="0"
     inkscape:pageshadow="2"
     inkscape:window-width="956"
     inkscape:window-height="1161"
     id="namedview337"
     showgrid="false"
     inkscape:zoom="1.1290775"
     inkscape:cx="341.81494"
     inkscape:cy="416.53554"
     inkscape:window-x="2880"
     inkscape:window-y="18"
     inkscape:window-maximized="0"
     inkscape:current-layer="g343" /><g
     id="g343"
     inkscape:groupmode="layer"
     inkscape:label="experiment"
     transform="matrix(1.3333333,0,0,-1.3333333,0,684.09448)"><path
       d="M 51.902,176.38286 H 257.336 V 5.69486 H 51.902 Z"
       style="fill:#ffffff;fill-opacity:1;fill-rule:nonzero;stroke:#000000;stroke-width:1.42872;stroke-linecap:butt;stroke-linejoin:miter;stroke-miterlimit:4;stroke-dasharray:none;stroke-opacity:1"
       id="path349"
       inkscape:connector-curvature="0" /><path
       d="m 55.223,59.11786 h 45.254 v -43.637 H 55.223 Z"
       style="fill:#ffffff;fill-opacity:1;fill-rule:nonzero;stroke:#000000;stroke-width:1.60000002;stroke-linecap:butt;stroke-linejoin:miter;stroke-miterlimit:4;stroke-dasharray:none;stroke-opacity:1"
       id="path353"
       inkscape:connector-curvature="0" /><path
       d="m 244.848,469.52386 h 50.668 v -121.785 h -50.668 z"
       style="fill:#ffffff;fill-opacity:1;fill-rule:nonzero;stroke:#000000;stroke-width:1.84078002;stroke-linecap:butt;stroke-linejoin:miter;stroke-miterlimit:4;stroke-dasharray:none;stroke-opacity:1"
       id="path357"
       inkscape:connector-curvature="0" /><path
       d="m 56.035,173.86386 h 47.668 v -99.383 H 56.035 Z"
       style="fill:#ffffff;fill-opacity:1;fill-rule:nonzero;stroke:#000000;stroke-width:1.61284804;stroke-linecap:butt;stroke-linejoin:miter;stroke-miterlimit:4;stroke-dasharray:none;stroke-opacity:1"
       id="path361"
       inkscape:connector-curvature="0" /><text
       id="text365"
       style="font-variant:normal;font-weight:normal;font-size:32.00000381px;font-family:'DejaVu Sans';-inkscape-font-specification:DejaVuSans;writing-mode:lr-tb;fill:#0000ff;fill-opacity:1;fill-rule:nonzero;stroke:none"
       transform="scale(1,-1)"
       x="253.87415"
       y="-434.08856"><tspan
         id="tspan363"
         y="-434.08856"
         x="253.87415">A</tspan></text>
<text
       id="text371"
       style="font-variant:normal;font-weight:normal;font-size:20.00000191px;font-family:'DejaVu Sans';-inkscape-font-specification:DejaVuSans;writing-mode:lr-tb;fill:#0000ff;fill-opacity:1;fill-rule:nonzero;stroke:none"
       transform="scale(1,-1)"
       x="277.30988"
       y="-427.6236"><tspan
         id="tspan367"
         y="-427.6236"
         x="277.30988">1</tspan><tspan
         id="tspan369"
         y="-452.9437"
         x="277.30988">4</tspan></text>
<text
       id="text375"
       style="font-variant:normal;font-weight:normal;font-size:32.00000381px;font-family:'DejaVu Sans';-inkscape-font-specification:DejaVuSans;writing-mode:lr-tb;fill:#0000ff;fill-opacity:1;fill-rule:nonzero;stroke:none"
       transform="scale(1,-1)"
       x="253.87415"
       y="-362.18839"><tspan
         id="tspan373"
         y="-362.18839"
         x="253.87415">B</tspan></text>
<text
       id="text381"
       style="font-variant:normal;font-weight:normal;font-size:20.00000191px;font-family:'DejaVu Sans';-inkscape-font-specification:DejaVuSans;writing-mode:lr-tb;fill:#0000ff;fill-opacity:1;fill-rule:nonzero;stroke:none"
       transform="scale(1,-1)"
       x="277.30988"
       y="-355.72345"><tspan
         id="tspan379"
         y="-381.04349"
         x="277.30988">4</tspan></text>
<path
       d="m 52.797,469.64486 h 177.785 v -192.332 H 52.797 Z"
       style="fill:#ffffff;fill-opacity:1;fill-rule:nonzero;stroke:#000000;stroke-width:1.60000002;stroke-linecap:butt;stroke-linejoin:miter;stroke-miterlimit:4;stroke-dasharray:none;stroke-opacity:1"
       id="path385"
       inkscape:connector-curvature="0" /><text
       id="text389"
       style="font-variant:normal;font-weight:normal;font-size:32.00000381px;font-family:'DejaVu Sans';-inkscape-font-specification:DejaVuSans;writing-mode:lr-tb;fill:#ff0000;fill-opacity:1;fill-rule:nonzero;stroke:none"
       transform="scale(1,-1)"
       x="57.789673"
       y="-434.08856"><tspan
         id="tspan387"
         y="-434.08856"
         x="57.789673">A</tspan></text>
<text
       id="text395"
       style="font-variant:normal;font-weight:normal;font-size:20.00000191px;font-family:'DejaVu Sans';-inkscape-font-specification:DejaVuSans;writing-mode:lr-tb;fill:#ff0000;fill-opacity:1;fill-rule:nonzero;stroke:none"
       transform="scale(1,-1)"
       x="81.22538"
       y="-427.6236"><tspan
         id="tspan393"
         y="-452.9437"
         x="81.22538">1</tspan></text>
<text
       id="text399"
       style="font-variant:normal;font-weight:normal;font-size:32.00000381px;font-family:'DejaVu Sans';-inkscape-font-specification:DejaVuSans;writing-mode:lr-tb;fill:#ff0000;fill-opacity:1;fill-rule:nonzero;stroke:none"
       transform="scale(1,-1)"
       x="57.789673"
       y="-362.18839"><tspan
         id="tspan397"
         y="-362.18839"
         x="57.789673">B</tspan></text>
<text
       id="text405"
       style="font-variant:normal;font-weight:normal;font-size:20.00000191px;font-family:'DejaVu Sans';-inkscape-font-specification:DejaVuSans;writing-mode:lr-tb;fill:#ff0000;fill-opacity:1;fill-rule:nonzero;stroke:none"
       transform="scale(1,-1)"
       x="81.22538"
       y="-355.72342"><tspan
         id="tspan403"
         y="-381.04352"
         x="81.22538">1</tspan></text>
<text
       id="text409"
       style="font-variant:normal;font-weight:normal;font-size:32.00000381px;font-family:'DejaVu Sans';-inkscape-font-specification:DejaVuSans;writing-mode:lr-tb;fill:#ff0000;fill-opacity:1;fill-rule:nonzero;stroke:none"
       transform="scale(1,-1)"
       x="57.789673"
       y="-290.28821"><tspan
         id="tspan407"
         y="-290.28821"
         x="57.789673">C</tspan></text>
<text
       id="text415"
       style="font-variant:normal;font-weight:normal;font-size:20.00000191px;font-family:'DejaVu Sans';-inkscape-font-specification:DejaVuSans;writing-mode:lr-tb;fill:#ff0000;fill-opacity:1;fill-rule:nonzero;stroke:none"
       transform="scale(1,-1)"
       x="81.22538"
       y="-283.82324"><tspan
         id="tspan413"
         y="-309.14331"
         x="81.22538">1</tspan></text>
<text
       id="text419"
       style="font-variant:normal;font-weight:normal;font-size:32.00000381px;font-family:'DejaVu Sans';-inkscape-font-specification:DejaVuSans;writing-mode:lr-tb;fill:#ff0000;fill-opacity:1;fill-rule:nonzero;stroke:none"
       transform="scale(1,-1)"
       x="123.15117"
       y="-434.08856"><tspan
         id="tspan417"
         y="-434.08856"
         x="123.15117">A</tspan></text>
<text
       id="text425"
       style="font-variant:normal;font-weight:normal;font-size:20.00000191px;font-family:'DejaVu Sans';-inkscape-font-specification:DejaVuSans;writing-mode:lr-tb;fill:#ff0000;fill-opacity:1;fill-rule:nonzero;stroke:none"
       transform="scale(1,-1)"
       x="146.58688"
       y="-427.6236"><tspan
         id="tspan423"
         y="-452.9437"
         x="146.58688">2</tspan></text>
<text
       id="text429"
       style="font-variant:normal;font-weight:normal;font-size:32.00000381px;font-family:'DejaVu Sans';-inkscape-font-specification:DejaVuSans;writing-mode:lr-tb;fill:#ff0000;fill-opacity:1;fill-rule:nonzero;stroke:none"
       transform="scale(1,-1)"
       x="188.51266"
       y="-434.08856"><tspan
         id="tspan427"
         y="-434.08856"
         x="188.51266">A</tspan></text>
<text
       id="text435"
       style="font-variant:normal;font-weight:normal;font-size:20.00000191px;font-family:'DejaVu Sans';-inkscape-font-specification:DejaVuSans;writing-mode:lr-tb;fill:#ff0000;fill-opacity:1;fill-rule:nonzero;stroke:none"
       transform="scale(1,-1)"
       x="211.94836"
       y="-427.6236"><tspan
         id="tspan433"
         y="-452.9437"
         x="211.94836">3</tspan></text>
<text
       id="text439"
       style="font-variant:normal;font-weight:normal;font-size:32.00000381px;font-family:'DejaVu Sans';-inkscape-font-specification:DejaVuSans;writing-mode:lr-tb;fill:#ff0000;fill-opacity:1;fill-rule:nonzero;stroke:none"
       transform="scale(1,-1)"
       x="123.15117"
       y="-362.18839"><tspan
         id="tspan437"
         y="-362.18839"
         x="123.15117">B</tspan></text>
<text
       id="text445"
       style="font-variant:normal;font-weight:normal;font-size:20.00000191px;font-family:'DejaVu Sans';-inkscape-font-specification:DejaVuSans;writing-mode:lr-tb;fill:#ff0000;fill-opacity:1;fill-rule:nonzero;stroke:none"
       transform="scale(1,-1)"
       x="146.58688"
       y="-355.72342"><tspan
         id="tspan443"
         y="-381.04352"
         x="146.58688">2</tspan></text>
<text
       id="text449"
       style="font-variant:normal;font-weight:normal;font-size:32.00000381px;font-family:'DejaVu Sans';-inkscape-font-specification:DejaVuSans;writing-mode:lr-tb;fill:#ff0000;fill-opacity:1;fill-rule:nonzero;stroke:none"
       transform="scale(1,-1)"
       x="188.51266"
       y="-362.18839"><tspan
         id="tspan447"
         y="-362.18839"
         x="188.51266">B</tspan></text>
<text
       id="text455"
       style="font-variant:normal;font-weight:normal;font-size:20.00000191px;font-family:'DejaVu Sans';-inkscape-font-specification:DejaVuSans;writing-mode:lr-tb;fill:#ff0000;fill-opacity:1;fill-rule:nonzero;stroke:none"
       transform="scale(1,-1)"
       x="211.94836"
       y="-355.72342"><tspan
         id="tspan453"
         y="-381.04352"
         x="211.94836">3</tspan></text>
<text
       id="text459"
       style="font-variant:normal;font-weight:normal;font-size:32.00000381px;font-family:'DejaVu Sans';-inkscape-font-specification:DejaVuSans;writing-mode:lr-tb;fill:#ff0000;fill-opacity:1;fill-rule:nonzero;stroke:none"
       transform="scale(1,-1)"
       x="123.15117"
       y="-290.28821"><tspan
         id="tspan457"
         y="-290.28821"
         x="123.15117">C</tspan></text>
<text
       id="text465"
       style="font-variant:normal;font-weight:normal;font-size:20.00000191px;font-family:'DejaVu Sans';-inkscape-font-specification:DejaVuSans;writing-mode:lr-tb;fill:#ff0000;fill-opacity:1;fill-rule:nonzero;stroke:none"
       transform="scale(1,-1)"
       x="146.58688"
       y="-283.82324"><tspan
         id="tspan463"
         y="-309.14331"
         x="146.58688">2</tspan></text>
<text
       id="text469"
       style="font-variant:normal;font-weight:normal;font-size:32.00000381px;font-family:'DejaVu Sans';-inkscape-font-specification:DejaVuSans;writing-mode:lr-tb;fill:#ff0000;fill-opacity:1;fill-rule:nonzero;stroke:none"
       transform="scale(1,-1)"
       x="188.51266"
       y="-290.28821"><tspan
         id="tspan467"
         y="-290.28821"
         x="188.51266">C</tspan></text>
<text
       id="text475"
       style="font-variant:normal;font-weight:normal;font-size:20.00000191px;font-family:'DejaVu Sans';-inkscape-font-specification:DejaVuSans;writing-mode:lr-tb;fill:#ff0000;fill-opacity:1;fill-rule:nonzero;stroke:none"
       transform="scale(1,-1)"
       x="211.94836"
       y="-283.82324"><tspan
         id="tspan473"
         y="-309.14331"
         x="211.94836">3</tspan></text>
<text
       id="text479"
       style="font-variant:normal;font-weight:normal;font-size:32.00000381px;font-family:'DejaVu Sans';-inkscape-font-specification:DejaVuSans;writing-mode:lr-tb;fill:#ff00ff;fill-opacity:1;fill-rule:nonzero;stroke:none"
       transform="scale(1,-1)"
       x="253.87418"
       y="-290.28821"><tspan
         id="tspan477"
         y="-290.28821"
         x="253.87418">C</tspan></text>
<text
       id="text485"
       style="font-variant:normal;font-weight:normal;font-size:20.00000191px;font-family:'DejaVu Sans';-inkscape-font-specification:DejaVuSans;writing-mode:lr-tb;fill:#ff00ff;fill-opacity:1;fill-rule:nonzero;stroke:none"
       transform="scale(1,-1)"
       x="277.30988"
       y="-283.82324"><tspan
         id="tspan483"
         y="-309.14331"
         x="277.30988">4</tspan></text>
<path
       d="m 44.633,286.93786 v 169.133"
       style="fill:none;stroke:#000000;stroke-width:0.78028703;stroke-linecap:butt;stroke-linejoin:miter;stroke-miterlimit:4;stroke-dasharray:none;stroke-opacity:1"
       id="path489"
       inkscape:connector-curvature="0" /><path
       d="m 44.633,294.74286 -3.121,3.121 3.121,-10.926 3.121,10.926 z"
       style="fill:#000000;fill-opacity:1;fill-rule:evenodd;stroke:#000000;stroke-width:0.78028703;stroke-linecap:butt;stroke-linejoin:miter;stroke-miterlimit:4;stroke-dasharray:none;stroke-opacity:1"
       id="path493"
       inkscape:connector-curvature="0" /><path
       d="m 44.633,448.26986 3.121,-3.121 -3.121,10.922 -3.121,-10.922 z"
       style="fill:#000000;fill-opacity:1;fill-rule:evenodd;stroke:#000000;stroke-width:0.78028703;stroke-linecap:butt;stroke-linejoin:miter;stroke-miterlimit:4;stroke-dasharray:none;stroke-opacity:1"
       id="path497"
       inkscape:connector-curvature="0" /><text
       id="text501"
       style="font-variant:normal;font-weight:normal;font-size:32.00000381px;font-family:'DejaVu Sans';-inkscape-font-specification:DejaVuSans;writing-mode:lr-tb;fill:#000000;fill-opacity:1;fill-rule:nonzero;stroke:none"
       transform="matrix(0,1,1,0,0,0)"
       x="311.43008"
       y="26.637756"><tspan
         id="tspan499"
         sodipodi:role="line"
         y="26.637756"
         x="311.43008 331.71808 351.97409 372.26208 380.93408 400.61407 418.1821 430.7261">Subjects</tspan></text>
<text
       id="text505"
       style="font-variant:normal;font-weight:normal;font-size:32.00000381px;font-family:'DejaVu Sans';-inkscape-font-specification:DejaVuSans;writing-mode:lr-tb;fill:#000000;fill-opacity:1;fill-rule:nonzero;stroke:none"
       transform="scale(1,-1)"
       x="104.51594"
       y="-485.79214"><tspan
         id="tspan503"
         sodipodi:role="line"
         y="-485.79214"
         x="104.51594 124.80394 144.48395 161.12395 177.57195 186.43594 205.98795 226.24396">Sessions</tspan></text>
<path
       d="M 60.836,477.72686 H 287.191"
       style="fill:none;stroke:#000000;stroke-width:0.902686;stroke-linecap:butt;stroke-linejoin:miter;stroke-miterlimit:4;stroke-dasharray:none;stroke-opacity:1"
       id="path509"
       inkscape:connector-curvature="0" /><path
       d="m 69.863,477.72686 3.61,3.61 -12.637,-3.61 12.637,-3.613 z"
       style="fill:#000000;fill-opacity:1;fill-rule:evenodd;stroke:#000000;stroke-width:0.902686;stroke-linecap:butt;stroke-linejoin:miter;stroke-miterlimit:4;stroke-dasharray:none;stroke-opacity:1"
       id="path513"
       inkscape:connector-curvature="0" /><path
       d="m 278.168,477.72686 -3.613,-3.613 12.636,3.613 -12.636,3.61 z"
       style="fill:#000000;fill-opacity:1;fill-rule:evenodd;stroke:#000000;stroke-width:0.902686;stroke-linecap:butt;stroke-linejoin:miter;stroke-miterlimit:4;stroke-dasharray:none;stroke-opacity:1"
       id="path517"
       inkscape:connector-curvature="0" /><text
       id="text521"
       style="font-variant:normal;font-weight:normal;font-size:32.00000381px;font-family:'DejaVu Sans';-inkscape-font-specification:DejaVuSans;writing-mode:lr-tb;fill:#ff0000;fill-opacity:1;fill-rule:nonzero;stroke:none"
       transform="scale(1,-1)"
       x="58.694191"
       y="-138.63715"><tspan
         id="tspan519"
         y="-138.63715"
         x="58.694191">W</tspan></text>
<text
       id="text525"
       style="font-variant:normal;font-weight:normal;font-size:20.00000191px;font-family:'DejaVu Sans';-inkscape-font-specification:DejaVuSans;writing-mode:lr-tb;fill:#ff0000;fill-opacity:1;fill-rule:nonzero;stroke:none"
       transform="scale(1,-1)"
       x="85.329895"
       y="-132.17213"><tspan
         id="tspan523"
         y="-132.17213"
         x="85.329895">a</tspan></text>
<text
       id="text529"
       style="font-variant:normal;font-weight:normal;font-size:32.00000381px;font-family:'DejaVu Sans';-inkscape-font-specification:DejaVuSans;writing-mode:lr-tb;fill:#ff0000;fill-opacity:1;fill-rule:nonzero;stroke:none"
       transform="scale(1,-1)"
       x="58.772316"
       y="-84.844025"><tspan
         id="tspan527"
         y="-84.844025"
         x="58.772316">W</tspan></text>
<text
       id="text533"
       style="font-variant:normal;font-weight:normal;font-size:20.00000191px;font-family:'DejaVu Sans';-inkscape-font-specification:DejaVuSans;writing-mode:lr-tb;fill:#ff0000;fill-opacity:1;fill-rule:nonzero;stroke:none"
       transform="scale(1,-1)"
       x="85.40802"
       y="-78.379036"><tspan
         id="tspan531"
         y="-78.379036"
         x="85.40802">b</tspan></text>
<text
       id="text537"
       style="font-variant:normal;font-weight:normal;font-size:32.00000381px;font-family:'DejaVu Sans';-inkscape-font-specification:DejaVuSans;writing-mode:lr-tb;fill:#ff0000;fill-opacity:1;fill-rule:nonzero;stroke:none"
       transform="scale(1,-1)"
       x="58.572121"
       y="-23.0509"><tspan
         id="tspan535"
         y="-23.0509"
         x="58.572121">W</tspan></text>
<text
       id="text541"
       style="font-variant:normal;font-weight:normal;font-size:20.00000191px;font-family:'DejaVu Sans';-inkscape-font-specification:DejaVuSans;writing-mode:lr-tb;fill:#ff0000;fill-opacity:1;fill-rule:nonzero;stroke:none"
       transform="scale(1,-1)"
       x="85.207825"
       y="-16.585957"><tspan
         id="tspan539"
         y="-16.585957"
         x="85.207825">c</tspan></text>
<text
       id="text545"
       style="font-variant:normal;font-weight:normal;font-size:32.00000381px;font-family:'DejaVu Sans';-inkscape-font-specification:DejaVuSans;writing-mode:lr-tb;fill:#ff0000;fill-opacity:1;fill-rule:nonzero;stroke:none"
       transform="scale(1,-1)"
       x="117.82111"
       y="-84.192116"><tspan
         id="tspan543"
         y="-84.192116"
         x="117.82111">S</tspan></text>
<text
       id="text549"
       style="font-variant:normal;font-weight:normal;font-size:20.00000191px;font-family:'DejaVu Sans';-inkscape-font-specification:DejaVuSans;writing-mode:lr-tb;fill:#ff0000;fill-opacity:1;fill-rule:nonzero;stroke:none"
       transform="scale(1,-1)"
       x="135.49403"
       y="-103.94896"><tspan
         id="tspan547"
         y="-103.94896"
         x="135.49403">1</tspan></text>
<text
       id="text553"
       style="font-variant:normal;font-weight:normal;font-size:32.00000381px;font-family:'DejaVu Sans';-inkscape-font-specification:DejaVuSans;writing-mode:lr-tb;fill:#ff0000;fill-opacity:1;fill-rule:nonzero;stroke:none"
       transform="scale(1,-1)"
       x="168.26357"
       y="-82.460274"><tspan
         id="tspan551"
         y="-82.460274"
         x="168.26357">S</tspan></text>
<text
       id="text557"
       style="font-variant:normal;font-weight:normal;font-size:20.00000191px;font-family:'DejaVu Sans';-inkscape-font-specification:DejaVuSans;writing-mode:lr-tb;fill:#ff0000;fill-opacity:1;fill-rule:nonzero;stroke:none"
       transform="scale(1,-1)"
       x="185.93646"
       y="-102.21712"><tspan
         id="tspan555"
         y="-102.21712"
         x="185.93646">2</tspan></text>
<text
       id="text561"
       style="font-variant:normal;font-weight:normal;font-size:32.00000381px;font-family:'DejaVu Sans';-inkscape-font-specification:DejaVuSans;writing-mode:lr-tb;fill:#ff0000;fill-opacity:1;fill-rule:nonzero;stroke:none"
       transform="scale(1,-1)"
       x="218.54977"
       y="-82.460281"><tspan
         id="tspan559"
         y="-82.460281"
         x="218.54977">S</tspan></text>
<text
       id="text565"
       style="font-variant:normal;font-weight:normal;font-size:20.00000191px;font-family:'DejaVu Sans';-inkscape-font-specification:DejaVuSans;writing-mode:lr-tb;fill:#ff0000;fill-opacity:1;fill-rule:nonzero;stroke:none"
       transform="scale(1,-1)"
       x="236.22266"
       y="-102.21712"><tspan
         id="tspan563"
         y="-102.21712"
         x="236.22266">3</tspan></text>
<path
       d="m 103.715,128.15286 h 276.953 l -0.754,221.664"
       style="fill:none;stroke:#000000;stroke-width:0.77068698;stroke-linecap:butt;stroke-linejoin:miter;stroke-miterlimit:4;stroke-dasharray:none;stroke-opacity:1"
       id="path569"
       inkscape:connector-curvature="0" /><path
       d="M 296.043,418.73086 H 338.23"
       style="fill:none;stroke:#000000;stroke-width:0.80000001;stroke-linecap:butt;stroke-linejoin:miter;stroke-miterlimit:4;stroke-dasharray:none;stroke-opacity:1"
       id="path573"
       inkscape:connector-curvature="0" /><path
       d="m 341.188,418.73086 -3.2,-3.199 11.2,3.199 -11.2,3.203 z"
       style="fill:#000000;fill-opacity:1;fill-rule:evenodd;stroke:#000000;stroke-width:0.80000001;stroke-linecap:butt;stroke-linejoin:miter;stroke-miterlimit:4;stroke-dasharray:none;stroke-opacity:1"
       id="path577"
       inkscape:connector-curvature="0" /><path
       d="m 379.26155,347.87173 2.75058,-2.68341 -2.82849,9.47249 -2.60151,-9.53961 z"
       style="fill:#000000;fill-opacity:1;fill-rule:evenodd;stroke:#000000;stroke-width:0.67902088;stroke-linecap:butt;stroke-linejoin:miter;stroke-miterlimit:4;stroke-dasharray:none;stroke-opacity:1"
       id="path581"
       inkscape:connector-curvature="0" /><text
       id="text585"
       style="font-variant:normal;font-weight:normal;font-size:32.00000381px;font-family:'DejaVu Sans';-inkscape-font-specification:DejaVuSans;writing-mode:lr-tb;fill:#ff00ff;fill-opacity:1;fill-rule:nonzero;stroke:none"
       transform="scale(1,-1)"
       x="442.95901"
       y="-290.28821"><tspan
         id="tspan583"
         y="-290.28821"
         x="442.95901">C</tspan></text>
<text
       id="text591"
       style="font-variant:normal;font-weight:normal;font-size:20.00000191px;font-family:'DejaVu Sans';-inkscape-font-specification:DejaVuSans;writing-mode:lr-tb;fill:#ff00ff;fill-opacity:1;fill-rule:nonzero;stroke:none"
       transform="scale(1,-1)"
       x="463.71927"
       y="-282.87173"><tspan
         id="tspan589"
         y="-308.1918"
         x="463.71927">4</tspan></text>
<text
       id="text595"
       style="font-variant:normal;font-weight:normal;font-size:32.00000381px;font-family:'DejaVu Sans';-inkscape-font-specification:DejaVuSans;writing-mode:lr-tb;fill:#ff00ff;fill-opacity:1;fill-rule:nonzero;stroke:none"
       transform="scale(1,-1)"
       x="440.49026"
       y="-306.97379"><tspan
         id="tspan593"
         y="-306.97379"
         x="440.49026">^</tspan></text>
<text
       id="text599"
       style="font-variant:normal;font-weight:normal;font-size:32.00000381px;font-family:'DejaVu Sans';-inkscape-font-specification:DejaVuSans;writing-mode:lr-tb;fill:#000000;fill-opacity:1;fill-rule:nonzero;stroke:none"
       transform="scale(1,-1)"
       x="234.5424"
       y="-248.22041"><tspan
         id="tspan597"
         sodipodi:role="line"
         y="-248.22041"
         x="234.5424 259.1824 278.76639 291.31039">Data</tspan></text>
<text
       id="text611"
       style="font-variant:normal;font-weight:normal;font-size:32.00000381px;font-family:'DejaVu Sans';-inkscape-font-specification:DejaVuSans;writing-mode:lr-tb;fill:#ff0000;fill-opacity:1;fill-rule:nonzero;stroke:none"
       transform="scale(1,-1)"
       x="62.033524"
       y="-148.48036"><tspan
         id="tspan601"
         y="-148.48036"
         x="62.033524">^</tspan><tspan
         id="tspan603"
         y="-95.85498"
         x="60.368549">^</tspan><tspan
         id="tspan605"
         y="-33.71085"
         x="61.241653">^</tspan><tspan
         id="tspan607"
         sodipodi:role="line"
         y="-96.728134"
         x="114.56146 164.54547">^^</tspan><tspan
         id="tspan609"
         y="-94.352486"
         x="214.70363">^</tspan></text>
<path
       d="m 244.75,336.17586 h 50.863 v -59.059 H 244.75 Z"
       style="fill:none;stroke:#000000;stroke-width:1.64577699;stroke-linecap:butt;stroke-linejoin:miter;stroke-miterlimit:4;stroke-dasharray:none;stroke-opacity:1"
       id="path615"
       inkscape:connector-curvature="0" /><path
       d="m 352.047,475.80886 h 50.672 v -121.785 h -50.672 z"
       style="fill:#ffffff;fill-opacity:1;fill-rule:nonzero;stroke:#000000;stroke-width:1.84078002;stroke-linecap:butt;stroke-linejoin:miter;stroke-miterlimit:4;stroke-dasharray:none;stroke-opacity:1"
       id="path619"
       inkscape:connector-curvature="0" /><text
       id="text623"
       style="font-variant:normal;font-weight:normal;font-size:32.00000381px;font-family:'DejaVu Sans';-inkscape-font-specification:DejaVuSans;writing-mode:lr-tb;fill:#0000ff;fill-opacity:1;fill-rule:nonzero;stroke:none"
       transform="scale(1,-1)"
       x="366.76013"
       y="-404.66284"><tspan
         id="tspan621"
         y="-404.66284"
         x="366.76013">S</tspan></text>
<text
       id="text627"
       style="font-variant:normal;font-weight:normal;font-size:20.00000191px;font-family:'DejaVu Sans';-inkscape-font-specification:DejaVuSans;writing-mode:lr-tb;fill:#0000ff;fill-opacity:1;fill-rule:nonzero;stroke:none"
       transform="scale(1,-1)"
       x="388.20706"
       y="-420.6456"><tspan
         id="tspan625"
         y="-420.6456"
         x="388.20706">4</tspan></text>
<text
       id="text631"
       style="font-variant:normal;font-weight:normal;font-size:32.00000381px;font-family:'DejaVu Sans';-inkscape-font-specification:DejaVuSans;writing-mode:lr-tb;fill:#0000ff;fill-opacity:1;fill-rule:nonzero;stroke:none"
       transform="scale(1,-1)"
       x="363.32935"
       y="-415.561"><tspan
         id="tspan629"
         y="-415.561"
         x="363.32935">^</tspan></text>
<path
       d="m 433.617,336.17586 h 50.863 v -59.059 h -50.863 z"
       style="fill:none;stroke:#000000;stroke-width:1.64577699;stroke-linecap:butt;stroke-linejoin:miter;stroke-miterlimit:4;stroke-dasharray:none;stroke-opacity:1"
       id="path635"
       inkscape:connector-curvature="0" /><text
       id="text639"
       style="font-variant:normal;font-weight:normal;font-size:29.99999809px;font-family:'DejaVu Sans';-inkscape-font-specification:DejaVuSans;writing-mode:lr-tb;fill:#000000;fill-opacity:1;fill-rule:nonzero;stroke:none"
       transform="scale(1,-1)"
       x="384.15961"
       y="-251.25227"><tspan
         id="tspan637"
         sodipodi:role="line"
         y="-251.25227"
         x="384.15961 401.73959 413.43961 431.88959 450.90961 459.2196 475.68961 487.44958 495.75961 514.0896">Prediction</tspan></text>
<path
       d="m 401.109,420.67586 h 55.438 v -83.703"
       style="fill:none;stroke:#000000;stroke-width:0.82499999;stroke-linecap:butt;stroke-linejoin:miter;stroke-miterlimit:4;stroke-dasharray:none;stroke-opacity:1"
       id="path643"
       inkscape:connector-curvature="0" /><path
       d="m 456.547,345.22286 3.301,3.301 -3.301,-11.551 -3.301,11.551 z"
       style="fill:#000000;fill-opacity:1;fill-rule:evenodd;stroke:#000000;stroke-width:0.88;stroke-linecap:butt;stroke-linejoin:miter;stroke-miterlimit:4;stroke-dasharray:none;stroke-opacity:1"
       id="path647"
       inkscape:connector-curvature="0" /><path
       d="m 99.773,35.48886 h 366.719 c 0,0 -0.64,233.441 -0.64,208.441"
       style="fill:none;stroke:#000000;stroke-width:0.66069502;stroke-linecap:butt;stroke-linejoin:miter;stroke-miterlimit:4;stroke-dasharray:none;stroke-opacity:1"
       id="path651"
       inkscape:connector-curvature="0" /><path
       d="m 465.852,237.32486 -2.645,-2.645 2.645,9.25 2.644,-9.25 z"
       style="fill:#000000;fill-opacity:1;fill-rule:evenodd;stroke:#000000;stroke-width:0.704741;stroke-linecap:butt;stroke-linejoin:miter;stroke-miterlimit:4;stroke-dasharray:none;stroke-opacity:1"
       id="path655"
       inkscape:connector-curvature="0" /><path
       d="m 146.746,274.60186 v -95.656"
       style="fill:none;stroke:#000000;stroke-width:0.75;stroke-linecap:butt;stroke-linejoin:miter;stroke-miterlimit:4;stroke-dasharray:none;stroke-opacity:1"
       id="path659"
       inkscape:connector-curvature="0" /><path
       d="m 146.746,186.44586 3,3 -3,-10.5 -3,10.5 z"
       style="fill:#000000;fill-opacity:1;fill-rule:evenodd;stroke:#000000;stroke-width:0.80000001;stroke-linecap:butt;stroke-linejoin:miter;stroke-miterlimit:4;stroke-dasharray:none;stroke-opacity:1"
       id="path663"
       inkscape:connector-curvature="0" /></g></svg>