,algo,repeat,n_components,memory usage
0,FastSRM_prob_temp,0,10,1852.453125
1,FastSRM_prob_temp_lowram,0,10,1730.7265625
2,FastSRM_det,0,10,1631.421875
3,FastSRM_prob,0,10,2006.6015625
4,FastSRM_prob_5jobs,0,10,1793.59765625
5,ProbSRM,0,10,62582.82421875
6,DetSRM,0,10,33470.58203125
7,FastSRM_prob_temp,0,20,1997.6328125
8,FastSRM_prob_temp_lowram,0,20,1997.66796875
9,FastSRM_det,0,20,1997.67578125
10,FastSRM_prob,0,20,2161.70703125
11,FastSRM_prob_5jobs,0,20,2196.8203125
12,ProbSRM,0,20,63262.59765625
13,DetSRM,0,20,34199.3671875
14,FastSRM_prob_temp,0,50,2471.55859375
15,FastSRM_prob_temp_lowram,0,50,2471.5859375
16,FastSRM_det,0,50,2471.5859375
17,FastSRM_prob,0,50,3119.98046875
18,FastSRM_prob_5jobs,0,50,3501.4140625
19,ProbSRM,0,50,65375.90625
20,DetSRM,0,50,36083.73828125
21,FastSRM_prob_temp,0,100,2776.78515625
22,FastSRM_prob_temp_lowram,0,100,2090.1796875
23,FastSRM_det,0,100,3234.625
24,FastSRM_prob,0,100,4836.859375
25,FastSRM_prob_5jobs,0,100,5992.171875
26,ProbSRM,0,100,68847.55859375
27,DetSRM,0,100,39779.81640625
28,FastSRM_prob_temp,0,200,2237.47265625
29,FastSRM_prob_temp_lowram,0,200,2237.47265625
30,FastSRM_det,0,200,4984.078125
31,FastSRM_prob,0,200,8035.88671875
32,FastSRM_prob_5jobs,0,200,10901.671875
33,ProbSRM,0,200,75632.59375
34,DetSRM,0,200,48006.890625
