,algo,repeat,n_subjects,fit time
0,FastSRM_prob_temp,0,5,34.276023864746094
1,FastSRM_prob_temp_lowram,0,5,41.933674812316895
2,FastSRM_det,0,5,54.91775822639465
3,FastSRM_prob,0,5,34.026551485061646
4,FastSRM_prob_5jobs,0,5,19.219393730163574
5,ProbSRM,0,5,73.02941608428955
6,DetSRM,0,5,64.68743801116943
7,FastSRM_prob_temp,0,10,87.78632974624634
8,FastSRM_prob_temp_lowram,0,10,79.25328826904297
9,FastSRM_det,0,10,85.0716757774353
10,FastSRM_prob,0,10,79.63034415245056
11,FastSRM_prob_5jobs,0,10,34.25144386291504
12,ProbSRM,0,10,177.34436130523682
13,DetSRM,0,10,128.42393231391907
14,FastSRM_prob_temp,0,15,97.44485449790955
15,FastSRM_prob_temp_lowram,0,15,112.64440679550171
16,FastSRM_det,0,15,118.49057698249817
17,FastSRM_prob,0,15,100.36477875709534
18,FastSRM_prob_5jobs,0,15,46.18739581108093
19,ProbSRM,0,15,234.3562171459198
20,DetSRM,0,15,192.52794003486633
21,FastSRM_prob_temp,0,20,132.7676591873169
22,FastSRM_prob_temp_lowram,0,20,148.0992133617401
23,FastSRM_det,0,20,156.27975392341614
24,FastSRM_prob,0,20,140.76885986328125
25,FastSRM_prob_5jobs,0,20,57.66337871551514
26,ProbSRM,0,20,318.93311834335327
27,DetSRM,0,20,263.3300585746765
28,FastSRM_prob_temp,0,25,172.8392939567566
29,FastSRM_prob_temp_lowram,0,25,182.23134875297546
30,FastSRM_det,0,25,201.68294501304626
31,FastSRM_prob,0,25,169.14694094657898
32,FastSRM_prob_5jobs,0,25,72.23440957069397
33,ProbSRM,0,25,390.32162618637085
34,DetSRM,0,25,323.7293367385864
35,FastSRM_prob_temp,0,30,206.66943621635437
36,FastSRM_prob_temp_lowram,0,30,215.70608711242676
37,FastSRM_det,0,30,246.67083859443665
38,FastSRM_prob,0,30,198.2117419242859
39,FastSRM_prob_5jobs,0,30,81.34324383735657
40,ProbSRM,0,30,477.9456157684326
41,DetSRM,0,30,389.0075993537903
42,FastSRM_prob_temp,1,5,33.89095211029053
43,FastSRM_prob_temp_lowram,1,5,36.54905843734741
44,FastSRM_det,1,5,39.53587746620178
45,FastSRM_prob,1,5,36.19838333129883
46,FastSRM_prob_5jobs,1,5,18.72664499282837
47,ProbSRM,1,5,73.818119764328
48,DetSRM,1,5,69.34512162208557
49,FastSRM_prob_temp,1,10,67.45732307434082
50,FastSRM_prob_temp_lowram,1,10,75.22897672653198
51,FastSRM_det,1,10,80.1517264842987
52,FastSRM_prob,1,10,65.35200667381287
53,FastSRM_prob_5jobs,1,10,32.39681315422058
54,ProbSRM,1,10,150.34752702713013
55,DetSRM,1,10,128.73517966270447
56,FastSRM_prob_temp,1,15,96.70108795166016
57,FastSRM_prob_temp_lowram,1,15,112.91649603843689
58,FastSRM_det,1,15,115.41612815856934
59,FastSRM_prob,1,15,104.12523436546326
60,FastSRM_prob_5jobs,1,15,45.46406078338623
61,ProbSRM,1,15,230.47702431678772
62,DetSRM,1,15,193.260662317276
63,FastSRM_prob_temp,1,20,136.9270179271698
64,FastSRM_prob_temp_lowram,1,20,144.5431206226349
65,FastSRM_det,1,20,168.02993083000183
66,FastSRM_prob,1,20,136.90845608711243
67,FastSRM_prob_5jobs,1,20,56.13349747657776
68,ProbSRM,1,20,313.13086795806885
69,DetSRM,1,20,264.94163489341736
70,FastSRM_prob_temp,1,25,171.73645639419556
71,FastSRM_prob_temp_lowram,1,25,177.73371601104736
72,FastSRM_det,1,25,201.99872136116028
73,FastSRM_prob,1,25,166.24721312522888
74,FastSRM_prob_5jobs,1,25,67.90862679481506
75,ProbSRM,1,25,392.8342547416687
76,DetSRM,1,25,329.4915556907654
77,FastSRM_prob_temp,1,30,204.04633164405823
78,FastSRM_prob_temp_lowram,1,30,214.98313879966736
79,FastSRM_det,1,30,246.07606506347656
80,FastSRM_prob,1,30,189.76766324043274
81,FastSRM_prob_5jobs,1,30,85.66559028625488
82,ProbSRM,1,30,468.87649297714233
83,DetSRM,1,30,383.83510422706604
84,FastSRM_prob_temp,2,5,35.780943155288696
85,FastSRM_prob_temp_lowram,2,5,37.63461518287659
86,FastSRM_det,2,5,41.18962240219116
87,FastSRM_prob,2,5,35.742854595184326
88,FastSRM_prob_5jobs,2,5,18.504772663116455
89,ProbSRM,2,5,80.26463913917542
90,DetSRM,2,5,61.101832151412964
91,FastSRM_prob_temp,2,10,69.09230256080627
92,FastSRM_prob_temp_lowram,2,10,72.02265286445618
93,FastSRM_det,2,10,81.65289378166199
94,FastSRM_prob,2,10,65.06806254386902
95,FastSRM_prob_5jobs,2,10,33.23844623565674
96,ProbSRM,2,10,141.22998523712158
97,DetSRM,2,10,129.43500089645386
98,FastSRM_prob_temp,2,15,102.4684681892395
99,FastSRM_prob_temp_lowram,2,15,109.70222306251526
100,FastSRM_det,2,15,118.9248914718628
101,FastSRM_prob,2,15,96.524977684021
102,FastSRM_prob_5jobs,2,15,46.004918813705444
103,ProbSRM,2,15,221.68461537361145
104,DetSRM,2,15,184.1636025905609
105,FastSRM_prob_temp,2,20,132.13812613487244
106,FastSRM_prob_temp_lowram,2,20,141.89003014564514
107,FastSRM_det,2,20,154.80263948440552
108,FastSRM_prob,2,20,128.16799020767212
109,FastSRM_prob_5jobs,2,20,68.99655199050903
110,ProbSRM,2,20,293.43291187286377
111,DetSRM,2,20,248.8887116909027
112,FastSRM_prob_temp,2,25,163.32179951667786
113,FastSRM_prob_temp_lowram,2,25,184.0893063545227
114,FastSRM_det,2,25,194.0988507270813
115,FastSRM_prob,2,25,160.94067764282227
116,FastSRM_prob_5jobs,2,25,75.49238634109497
117,ProbSRM,2,25,362.39575600624084
118,DetSRM,2,25,310.65293765068054
119,FastSRM_prob_temp,2,30,195.1695806980133
120,FastSRM_prob_temp_lowram,2,30,218.83177280426025
121,FastSRM_det,2,30,228.3754403591156
122,FastSRM_prob,2,30,192.80515718460083
123,FastSRM_prob_5jobs,2,30,87.76826047897339
124,ProbSRM,2,30,450.1246819496155
125,DetSRM,2,30,377.6019892692566
