,algo,repeat,n_voxels,fit time
0,FastSRM_prob_temp,0,1000,20.14353036880493
1,FastSRM_prob_temp_lowram,0,1000,37.49531388282776
2,FastSRM_det,0,1000,20.20798969268799
3,FastSRM_prob,0,1000,20.533610582351685
4,FastSRM_prob_5jobs,0,1000,22.906195640563965
5,ProbSRM,0,1000,3.1404125690460205
6,DetSRM,0,1000,2.503986120223999
7,FastSRM_prob_temp,0,10000,26.433027267456055
8,FastSRM_prob_temp_lowram,0,10000,38.502604961395264
9,FastSRM_det,0,10000,26.262890815734863
10,FastSRM_prob,0,10000,24.328346490859985
11,FastSRM_prob_5jobs,0,10000,20.804253101348877
12,ProbSRM,0,10000,24.581947803497314
13,DetSRM,0,10000,20.089273691177368
14,FastSRM_prob_temp,0,100000,125.53379321098328
15,FastSRM_prob_temp_lowram,0,100000,146.08183765411377
16,FastSRM_det,0,100000,168.03688716888428
17,FastSRM_prob,0,100000,127.95018458366394
18,FastSRM_prob_5jobs,0,100000,57.14571785926819
19,ProbSRM,0,100000,419.3215103149414
20,DetSRM,0,100000,353.89374899864197
21,FastSRM_prob_temp,1,1000,17.963610649108887
22,FastSRM_prob_temp_lowram,1,1000,31.699504137039185
23,FastSRM_det,1,1000,16.407156944274902
24,FastSRM_prob,1,1000,16.476908445358276
25,FastSRM_prob_5jobs,1,1000,19.00522470474243
26,ProbSRM,1,1000,2.6442480087280273
27,DetSRM,1,1000,2.232433319091797
28,FastSRM_prob_temp,1,10000,24.89591097831726
29,FastSRM_prob_temp_lowram,1,10000,39.63296031951904
30,FastSRM_det,1,10000,26.75990915298462
31,FastSRM_prob,1,10000,25.274693489074707
32,FastSRM_prob_5jobs,1,10000,20.563313245773315
33,ProbSRM,1,10000,24.373165607452393
34,DetSRM,1,10000,19.72981834411621
35,FastSRM_prob_temp,1,100000,132.04515099525452
36,FastSRM_prob_temp_lowram,1,100000,163.17511749267578
37,FastSRM_det,1,100000,160.9315745830536
38,FastSRM_prob,1,100000,129.68169903755188
39,FastSRM_prob_5jobs,1,100000,58.461392641067505
40,ProbSRM,1,100000,381.14749550819397
41,DetSRM,1,100000,291.32903933525085
42,FastSRM_prob_temp,2,1000,18.825912952423096
43,FastSRM_prob_temp_lowram,2,1000,38.38972759246826
44,FastSRM_det,2,1000,22.200437545776367
45,FastSRM_prob,2,1000,17.641464471817017
46,FastSRM_prob_5jobs,2,1000,20.801528453826904
47,ProbSRM,2,1000,2.9394869804382324
48,DetSRM,2,1000,2.4353578090667725
49,FastSRM_prob_temp,2,10000,27.25972032546997
50,FastSRM_prob_temp_lowram,2,10000,45.29277157783508
51,FastSRM_det,2,10000,33.24680805206299
52,FastSRM_prob,2,10000,29.95655369758606
53,FastSRM_prob_5jobs,2,10000,22.098458528518677
54,ProbSRM,2,10000,27.036976099014282
55,DetSRM,2,10000,22.613600254058838
56,FastSRM_prob_temp,2,100000,149.49953269958496
57,FastSRM_prob_temp_lowram,2,100000,163.76889491081238
58,FastSRM_det,2,100000,185.85882949829102
59,FastSRM_prob,2,100000,145.24119997024536
60,FastSRM_prob_5jobs,2,100000,64.39294981956482
61,ProbSRM,2,100000,368.6102373600006
62,DetSRM,2,100000,327.95235657691956
